,Mep,BaseUrl
0,Nedzhmi ALI,/meps/en/34250/NEDZHMI_ALI/home
1,Jean ARTHUIS,/meps/en/124773/JEAN_ARTHUIS/home
2,Johannes Cornelis van BAALEN,/meps/en/96937/JOHANNES+CORNELIS_VAN+BAALEN/home
3,Beatriz BECERRA BASTERRECHEA,/meps/en/125040/BEATRIZ_BECERRA+BASTERRECHEA/home
4,Izaskun BILBAO BARANDICA,/meps/en/96922/IZASKUN_BILBAO+BARANDICA/home
5,David BORRELLI,/meps/en/124796/DAVID_BORRELLI/home
6,Jean-Marie CAVADA,/meps/en/28206/JEAN-MARIE_CAVADA/home
7,Dita CHARANZOVÁ,/meps/en/124708/DITA_CHARANZOVA/home
8,Gérard DEPREZ,/meps/en/1473/GERARD_DEPREZ/home
9,Martina DLABAJOVÁ,/meps/en/124709/MARTINA_DLABAJOVA/home
10,Fredrick FEDERLEY,/meps/en/124989/FREDRICK_FEDERLEY/home
11,Gerben-Jan GERBRANDY,/meps/en/96940/GERBEN-JAN_GERBRANDY/home
12,María Teresa GIMÉNEZ BARBAT,/meps/en/135491/MARIA+TERESA_GIMENEZ+BARBAT/home
13,Charles GOERENS,/meps/en/840/CHARLES_GOERENS/home
14,Nathalie GRIESBECK,/meps/en/28208/NATHALIE_GRIESBECK/home
15,Marian HARKIN,/meps/en/28116/MARIAN_HARKIN/home
16,Nadja HIRSCH,/meps/en/96872/NADJA_HIRSCH/home
17,Jan HUITEMA,/meps/en/58789/JAN_HUITEMA/home
18,Filiz HYUSMENOVA,/meps/en/34249/FILIZ_HYUSMENOVA/home
19,Anneli JÄÄTTEENMÄKI,/meps/en/28314/ANNELI_JAATTEENMAKI/home
20,Ivan JAKOVČIĆ,/meps/en/124754/IVAN_JAKOVCIC/home
21,Petr JEŽEK,/meps/en/124707/PETR_JEZEK/home
22,Elsi KATAINEN,/meps/en/191693/ELSI_KATAINEN/home
23,Wolf KLINZ,/meps/en/28244/WOLF_KLINZ/home
24,Ilhan KYUCHYUK,/meps/en/124866/ILHAN_KYUCHYUK/home
25,Patricia LALONDE,/meps/en/188254/PATRICIA_LALONDE/home
26,Morten LØKKEGAARD,/meps/en/96709/MORTEN_LOKKEGAARD/home
27,António MARINHO E PINTO,/meps/en/124742/ANTONIO_MARINHO+E+PINTO/home
28,Gesine MEISSNER,/meps/en/96870/GESINE_MEISSNER/home
29,Louis MICHEL,/meps/en/96670/LOUIS_MICHEL/home
30,Matthijs van MILTENBURG,/meps/en/125022/MATTHIJS_VAN+MILTENBURG/home
31,Angelika MLINAR,/meps/en/125026/ANGELIKA_MLINAR/home
32,Ulrike MÜLLER,/meps/en/124862/ULRIKE_MULLER/home
33,Caroline NAGTEGAAL,/meps/en/190519/CAROLINE_NAGTEGAAL/home
34,Javier NART,/meps/en/125005/JAVIER_NART/home
35,Maite PAGAZAURTUNDÚA,/meps/en/125038/MAITE_PAGAZAURTUNDUA/home
36,Morten PETERSEN,/meps/en/124872/MORTEN_PETERSEN/home
37,Carolina PUNSET,/meps/en/90110/CAROLINA_PUNSET/home
38,Jozo RADOŠ,/meps/en/112753/JOZO_RADOS/home
39,Frédérique RIES,/meps/en/4253/FREDERIQUE_RIES/home
40,Dominique RIQUET,/meps/en/96885/DOMINIQUE_RIQUET/home
41,Robert ROCHEFORT,/meps/en/97022/ROBERT_ROCHEFORT/home
42,Marietje SCHAAKE,/meps/en/96945/MARIETJE_SCHAAKE/home
43,Jasenko SELIMOVIC,/meps/en/134243/JASENKO_SELIMOVIC/home
44,Pavel TELIČKA,/meps/en/124706/PAVEL_TELICKA/home
45,Nils TORVALDS,/meps/en/114268/NILS_TORVALDS/home
46,Ramon TREMOSA i BALCELLS,/meps/en/97203/RAMON_TREMOSA+I+BALCELLS/home
47,Viktor USPASKICH,/meps/en/96698/VIKTOR_USPASKICH/home
48,Ivo VAJGL,/meps/en/97019/IVO_VAJGL/home
49,Hilde VAUTMANS,/meps/en/130100/HILDE_VAUTMANS/home
50,Mirja VEHKAPERÄ,/meps/en/193269/MIRJA_VEHKAPERA/home
51,Guy VERHOFSTADT,/meps/en/97058/GUY_VERHOFSTADT/home
52,Renate WEBER,/meps/en/39713/RENATE_WEBER/home
53,Lieve WIERINCK,/meps/en/183022/LIEVE_WIERINCK/home
54,Cecilia WIKSTRÖM,/meps/en/96677/CECILIA_WIKSTROM/home
55,Bas BELDER,/meps/en/4507/BAS_BELDER/home
56,Ryszard CZARNECKI,/meps/en/28372/RYSZARD_CZARNECKI/home
57,Edward CZESAK,/meps/en/132925/EDWARD_CZESAK/home
58,Peter van DALEN,/meps/en/96809/PETER_VAN+DALEN/home
59,Daniel DALTON,/meps/en/35135/DANIEL_DALTON/home
60,Mark DEMESMAEKER,/meps/en/117477/MARK_DEMESMAEKER/home
61,Nirj DEVA,/meps/en/4556/NIRJ_DEVA/home
62,Jørn DOHRMANN,/meps/en/124878/JORN_DOHRMANN/home
63,Angel DZHAMBAZKI,/meps/en/124873/ANGEL_DZHAMBAZKI/home
64,John FLACK,/meps/en/188623/JOHN_FLACK/home
65,Jacqueline FOSTER,/meps/en/4553/JACQUELINE_FOSTER/home
66,Ashley FOX,/meps/en/96957/ASHLEY_FOX/home
67,Elisabetta GARDINI,/meps/en/58758/ELISABETTA_GARDINI/home
68,Arne GERICKE,/meps/en/124815/ARNE_GERICKE/home
69,Beata GOSIEWSKA,/meps/en/124900/BEATA_GOSIEWSKA/home
70,Daniel HANNAN,/meps/en/4555/DANIEL_HANNAN/home
71,Hans-Olaf HENKEL,/meps/en/124823/HANS-OLAF_HENKEL/home
72,Czesław HOC,/meps/en/135540/CZESLAW_HOC/home
73,Marek JUREK,/meps/en/124892/MAREK_JUREK/home
74,Syed KAMALL,/meps/en/33569/SYED_KAMALL/home
75,Sajjad KARIM,/meps/en/28481/SAJJAD_KARIM/home
76,Karol KARSKI,/meps/en/124887/KAROL_KARSKI/home
77,Sławomir KŁOSOWSKI,/meps/en/135541/SLAWOMIR_KLOSOWSKI/home
78,Bernd KÖLMEL,/meps/en/124824/BERND_KOLMEL/home
79,Zdzisław KRASNODĘBSKI,/meps/en/124891/ZDZISLAW_KRASNODEBSKI/home
80,Urszula KRUPA,/meps/en/28334/URSZULA_KRUPA/home
81,Zbigniew KUŹMIUK,/meps/en/28389/ZBIGNIEW_KUZMIUK/home
82,Bernd LUCKE,/meps/en/124820/BERND_LUCKE/home
83,Peter LUNDGREN,/meps/en/124996/PETER_LUNDGREN/home
84,Emma McCLARKIN,/meps/en/96919/EMMA_MCCLARKIN/home
85,Anthea McINTYRE,/meps/en/111011/ANTHEA_MCINTYRE/home
86,Monica MACOVEI,/meps/en/96824/MONICA_MACOVEI/home
87,Notis MARIAS,/meps/en/125069/NOTIS_MARIAS/home
88,Rupert MATTHEWS,/meps/en/188622/RUPERT_MATTHEWS/home
89,Morten MESSERSCHMIDT,/meps/en/96663/MORTEN_MESSERSCHMIDT/home
90,Baroness Nosheena MOBARIK,/meps/en/189391/Baroness_NOSHEENA_MOBARIK/home
91,James NICHOLSON,/meps/en/1318/JAMES_NICHOLSON/home
92,Stanisław OŻÓG,/meps/en/124897/STANISLAW_OZOG/home
93,Ralph PACKET,/meps/en/195454/RALPH_PACKET/home
94,Bolesław G. PIECHA,/meps/en/124874/BOLESLAW+G._PIECHA/home
95,Mirosław PIOTROWSKI,/meps/en/28341/MIROSLAW_PIOTROWSKI/home
96,John PROCTER,/meps/en/185628/JOHN_PROCTER/home
97,Laurenţiu REBEGA,/meps/en/124792/LAURENTIU_REBEGA/home
98,Remo SERNAGIOTTO,/meps/en/124794/REMO_SERNAGIOTTO/home
99,Branislav ŠKRIPEK,/meps/en/124927/BRANISLAV_SKRIPEK/home
100,Joachim STARBATTY,/meps/en/124827/JOACHIM_STARBATTY/home
101,Helga STEVENS,/meps/en/125105/HELGA_STEVENS/home
102,Charles TANNOCK,/meps/en/4521/CHARLES_TANNOCK/home
103,Ruža TOMAŠIĆ,/meps/en/119431/RUZA_TOMASIC/home
104,Evžen TOŠENOVSKÝ,/meps/en/96713/EVZEN_TOSENOVSKY/home
105,Ulrike TREBESIUS,/meps/en/124829/ULRIKE_TREBESIUS/home
106,Anneleen VAN BOSSUYT,/meps/en/117491/ANNELEEN_VAN+BOSSUYT/home
107,Anders Primdahl VISTISEN,/meps/en/124875/ANDERS+PRIMDAHL_VISTISEN/home
108,Kristina WINBERG,/meps/en/124995/KRISTINA_WINBERG/home
109,Jadwiga WIŚNIEWSKA,/meps/en/124877/JADWIGA_WISNIEWSKA/home
110,Jana ŽITŇANSKÁ,/meps/en/124901/JANA_ZITNANSKA/home
111,Kosma ZŁOTOWSKI,/meps/en/124884/KOSMA_ZLOTOWSKI/home
112,Laura AGEA,/meps/en/124811/LAURA_AGEA/home
113,Daniela AIUTO,/meps/en/124842/DANIELA_AIUTO/home
114,Jonathan ARNOTT,/meps/en/124958/JONATHAN_ARNOTT/home
115,Joëlle BERGERON,/meps/en/124740/JOELLE_BERGERON/home
116,Fabio Massimo CASTALDO,/meps/en/124812/FABIO+MASSIMO_CASTALDO/home
117,Ignazio CORRAO,/meps/en/124856/IGNAZIO_CORRAO/home
118,Rosa D'AMATO,/meps/en/124835/ROSA_D%27AMATO/home
119,William (The Earl of) DARTMOUTH,/meps/en/96958/WILLIAM_%28THE+EARL+OF%29+DARTMOUTH/home
120,Mireille D'ORNANO,/meps/en/124750/MIREILLE_D%27ORNANO/home
121,Eleonora EVI,/meps/en/124779/ELEONORA_EVI/home
122,Diane JAMES,/meps/en/124939/DIANE_JAMES/home
123,Bernard MONOT,/meps/en/124761/BERNARD_MONOT/home
124,Piernicola PEDICINI,/meps/en/124844/PIERNICOLA_PEDICINI/home
125,Florian PHILIPPOT,/meps/en/110977/FLORIAN_PHILIPPOT/home
126,Dario TAMBURRANO,/meps/en/124813/DARIO_TAMBURRANO/home
127,Marco VALLI,/meps/en/124778/MARCO_VALLI/home
128,Marco ZULLO,/meps/en/125237/MARCO_ZULLO/home
129,Mara BIZZOTTO,/meps/en/97198/MARA_BIZZOTTO/home
130,Mario BORGHEZIO,/meps/en/21817/MARIO_BORGHEZIO/home
131,Danilo Oscar LANCINI,/meps/en/192635/DANILO+OSCAR_LANCINI/home
132,Marco ZANNI,/meps/en/124780/MARCO_ZANNI/home
133,Martina ANDERSON,/meps/en/113959/MARTINA_ANDERSON/home
134,Malin BJÖRK,/meps/en/124992/MALIN_BJORK/home
135,Matt CARTHY,/meps/en/124986/MATT_CARTHY/home
136,Kostas CHRYSOGONOS,/meps/en/125061/KOSTAS_CHRYSOGONOS/home
137,Stefan ECK,/meps/en/124863/STEFAN_ECK/home
138,Luke Ming FLANAGAN,/meps/en/124985/LUKE+MING_FLANAGAN/home
139,Thomas HÄNDEL,/meps/en/96851/THOMAS_HANDEL/home
140,Anja HAZEKAMP,/meps/en/125023/ANJA_HAZEKAMP/home
141,Dennis de JONG,/meps/en/96748/DENNIS_DE+JONG/home
142,Rina Ronja KARI,/meps/en/122885/RINA+RONJA_KARI/home
143,Anne-Marie MINEUR,/meps/en/125037/ANNE-MARIE_MINEUR/home
144,Barbara SPINELLI,/meps/en/124810/BARBARA_SPINELLI/home
145,Marie-Christine VERGIAT,/meps/en/96858/MARIE-CHRISTINE_VERGIAT/home
146,Marie-Pierre VIEU,/meps/en/188721/MARIE-PIERRE_VIEU/home
147,Lampros FOUNTOULIS,/meps/en/125070/LAMPROS_FOUNTOULIS/home
148,Béla KOVÁCS,/meps/en/102887/BELA_KOVACS/home
149,Krisztina MORVAI,/meps/en/96661/KRISZTINA_MORVAI/home
150,Martin SONNEBORN,/meps/en/124834/MARTIN_SONNEBORN/home
151,Kazimierz Michał UJAZDOWSKI,/meps/en/23791/KAZIMIERZ+MICHAL_UJAZDOWSKI/home
152,Asim ADEMOV,/meps/en/189525/ASIM_ADEMOV/home
153,Michèle ALLIOT-MARIE,/meps/en/1179/MICHELE_ALLIOT-MARIE/home
154,Laima Liucija ANDRIKIENĖ,/meps/en/28276/LAIMA+LIUCIJA_ANDRIKIENE/home
155,Pascal ARIMONT,/meps/en/24922/PASCAL_ARIMONT/home
156,Richard ASHWORTH,/meps/en/28132/RICHARD_ASHWORTH/home
157,Pilar AYUSO,/meps/en/4319/PILAR_AYUSO/home
158,Georges BACH,/meps/en/97293/GEORGES_BACH/home
159,Heinz K. BECKER,/meps/en/107041/HEINZ+K._BECKER/home
160,Ivo BELET,/meps/en/28257/IVO_BELET/home
161,Bendt BENDTSEN,/meps/en/96705/BENDT_BENDTSEN/home
162,Andrea BOCSKOR,/meps/en/124712/ANDREA_BOCSKOR/home
163,Franc BOGOVIČ,/meps/en/125004/FRANC_BOGOVIC/home
164,Michał BONI,/meps/en/124896/MICHAL_BONI/home
165,Elmar BROK,/meps/en/1263/ELMAR_BROK/home
166,Daniel BUDA,/meps/en/125012/DANIEL_BUDA/home
167,Jerzy BUZEK,/meps/en/28269/JERZY_BUZEK/home
168,Alain CADEC,/meps/en/96849/ALAIN_CADEC/home
169,Wim van de CAMP,/meps/en/96754/WIM_VAN+DE+CAMP/home
170,David CASA,/meps/en/28122/DAVID_CASA/home
171,Daniel CASPARY,/meps/en/28219/DANIEL_CASPARY/home
172,Pilar del CASTILLO VERA,/meps/en/28390/PILAR_DEL+CASTILLO+VERA/home
173,Deirdre CLUNE,/meps/en/124988/DEIRDRE_CLUNE/home
174,Carlos COELHO,/meps/en/1892/CARLOS_COELHO/home
175,Anna Maria CORAZZA BILDT,/meps/en/96674/ANNA+MARIA_CORAZZA+BILDT/home
176,Pál CSÁKY,/meps/en/124930/PAL_CSAKY/home
177,Michel DANTIN,/meps/en/97296/MICHEL_DANTIN/home
178,Rachida DATI,/meps/en/72775/RACHIDA_DATI/home
179,Angélique DELAHAYE,/meps/en/124732/ANGELIQUE_DELAHAYE/home
180,Andor DELI,/meps/en/124714/ANDOR_DELI/home
181,Albert DESS,/meps/en/28228/ALBERT_DESS/home
182,Tamás DEUTSCH,/meps/en/96826/TAMAS_DEUTSCH/home
183,Agustín DÍAZ DE MERA GARCÍA CONSUEGRA,/meps/en/28397/AGUSTIN_DIAZ+DE+MERA+GARCIA+CONSUEGRA/home
184,Geoffroy DIDIER,/meps/en/190774/GEOFFROY_DIDIER/home
185,Herbert DORFMANN,/meps/en/96787/HERBERT_DORFMANN/home
186,Norbert ERDŐS,/meps/en/124711/NORBERT_ERDOS/home
187,Rosa ESTARÀS FERRAGUT,/meps/en/96811/ROSA_ESTARAS+FERRAGUT/home
188,José Inácio FARIA,/meps/en/125101/JOSE+INACIO_FARIA/home
189,José Manuel FERNANDES,/meps/en/96899/JOSE+MANUEL_FERNANDES/home
190,Santiago FISAS AYXELÀ,/meps/en/96729/SANTIAGO_FISAS+AYXELA/home
191,Christofer FJELLNER,/meps/en/28126/CHRISTOFER_FJELLNER/home
192,Michael GAHLER,/meps/en/2341/MICHAEL_GAHLER/home
193,Kinga GÁL,/meps/en/28150/KINGA_GAL/home
194,Francisco de Paula GAMBUS MILLET,/meps/en/125006/FRANCISCO+DE+PAULA_GAMBUS+MILLET/home
195,Stefan GEHROLD,/meps/en/194391/STEFAN_GEHROLD/home
196,Jens GIESEKE,/meps/en/124807/JENS_GIESEKE/home
197,Julie GIRLING,/meps/en/96956/JULIE_GIRLING/home
198,Esteban GONZÁLEZ PONS,/meps/en/125027/ESTEBAN_GONZALEZ+PONS/home
199,Ingeborg GRÄSSLE,/meps/en/28220/INGEBORG_GRASSLE/home
200,Françoise GROSSETÊTE,/meps/en/2025/FRANCOISE_GROSSETETE/home
201,Andrzej GRZYB,/meps/en/23785/ANDRZEJ_GRZYB/home
202,Antanas GUOGA,/meps/en/124763/ANTANAS_GUOGA/home
203,Christophe HANSEN,/meps/en/193419/CHRISTOPHE_HANSEN/home
204,Brian HAYES,/meps/en/118658/BRIAN_HAYES/home
205,Esther HERRANZ GARCÍA,/meps/en/22418/ESTHER_HERRANZ+GARCIA/home
206,Krzysztof HETMAN,/meps/en/124895/KRZYSZTOF_HETMAN/home
207,Monika HOHLMEIER,/meps/en/96780/MONIKA_HOHLMEIER/home
208,Gunnar HÖKMARK,/meps/en/28124/GUNNAR_HOKMARK/home
209,György HÖLVÉNYI,/meps/en/124715/GYORGY_HOLVENYI/home
210,Brice HORTEFEUX,/meps/en/5565/BRICE_HORTEFEUX/home
211,Danuta Maria HÜBNER,/meps/en/96779/DANUTA+MARIA_HUBNER/home
212,Carlos ITURGAIZ,/meps/en/28398/CARLOS_ITURGAIZ/home
213,Peter JAHR,/meps/en/96772/PETER_JAHR/home
214,Lívia JÁRÓKA,/meps/en/28141/LIVIA_JAROKA/home
215,Danuta JAZŁOWIECKA,/meps/en/96781/DANUTA_JAZLOWIECKA/home
216,Marc JOULAUD,/meps/en/124728/MARC_JOULAUD/home
217,Philippe JUVIN,/meps/en/96884/PHILIPPE_JUVIN/home
218,Sandra KALNIETE,/meps/en/96934/SANDRA_KALNIETE/home
219,Tunne KELAM,/meps/en/28424/TUNNE_KELAM/home
220,Seán KELLY,/meps/en/96668/SEAN_KELLY/home
221,Dieter-Lebrecht KOCH,/meps/en/1852/DIETER-LEBRECHT_KOCH/home
222,Ádám KÓSA,/meps/en/96829/ADAM_KOSA/home
223,Andrey KOVATCHEV,/meps/en/97968/ANDREY_KOVATCHEV/home
224,Werner KUHN,/meps/en/96767/WERNER_KUHN/home
225,Eduard KUKAN,/meps/en/96651/EDUARD_KUKAN/home
226,Alain LAMASSOURE,/meps/en/1204/ALAIN_LAMASSOURE/home
227,Jérôme LAVRILLEUX,/meps/en/124731/JEROME_LAVRILLEUX/home
228,Jeroen LENAERS,/meps/en/95074/JEROEN_LENAERS/home
229,Janusz LEWANDOWSKI,/meps/en/23781/JANUSZ_LEWANDOWSKI/home
230,Peter LIESE,/meps/en/1927/PETER_LIESE/home
231,Norbert LINS,/meps/en/124808/NORBERT_LINS/home
232,Verónica LOPE FONTAGNÉ,/meps/en/96765/VERONICA_LOPE+FONTAGNE/home
233,Aleksejs LOSKUTOVS,/meps/en/196042/ALEKSEJS_LOSKUTOVS/home
234,Elżbieta Katarzyna ŁUKACIJEWSKA,/meps/en/96791/ELZBIETA+KATARZYNA_LUKACIJEWSKA/home
235,Ivana MALETIĆ,/meps/en/119436/IVANA_MALETIC/home
236,Svetoslav Hristov MALINOV,/meps/en/111027/SVETOSLAV+HRISTOV_MALINOV/home
237,Lukas MANDL,/meps/en/190713/LUKAS_MANDL/home
238,Thomas MANN,/meps/en/1922/THOMAS_MANN/home
239,Gabriel MATO,/meps/en/96936/GABRIEL_MATO/home
240,Nuno MELO,/meps/en/96978/NUNO_MELO/home
241,Roberta METSOLA,/meps/en/118859/ROBERTA_METSOLA/home
242,Miroslav MIKOLÁŠIK,/meps/en/28178/MIROSLAV_MIKOLASIK/home
243,Francisco José MILLÁN MON,/meps/en/28400/FRANCISCO+JOSE_MILLAN+MON/home
244,Sorin MOISĂ,/meps/en/124789/SORIN_MOISA/home
245,Nadine MORANO,/meps/en/72779/NADINE_MORANO/home
246,József NAGY,/meps/en/124926/JOZSEF_NAGY/home
247,Angelika NIEBLER,/meps/en/4289/ANGELIKA_NIEBLER/home
248,Lambert van NISTELROOIJ,/meps/en/28165/LAMBERT_VAN+NISTELROOIJ/home
249,Andrey NOVAKOV,/meps/en/107212/ANDREY_NOVAKOV/home
250,Jan OLBRYCHT,/meps/en/28288/JAN_OLBRYCHT/home
251,Alojz PETERLE,/meps/en/23693/ALOJZ_PETERLE/home
252,Marijana PETIR,/meps/en/124749/MARIJANA_PETIR/home
253,Markus PIEPER,/meps/en/28224/MARKUS_PIEPER/home
254,Sirpa PIETIKÄINEN,/meps/en/40599/SIRPA_PIETIKAINEN/home
255,Julia PITERA,/meps/en/124898/JULIA_PITERA/home
256,Marek PLURA,/meps/en/124881/MAREK_PLURA/home
257,Stanislav POLČÁK,/meps/en/124704/STANISLAV_POLCAK/home
258,Jiří POSPÍŠIL,/meps/en/125706/JIRI_POSPISIL/home
259,Cristian Dan PREDA,/meps/en/96838/CRISTIAN+DAN_PREDA/home
260,Franck PROUST,/meps/en/108080/FRANCK_PROUST/home
261,Emil RADEV,/meps/en/124850/EMIL_RADEV/home
262,Dennis RADTKE,/meps/en/188945/DENNIS_RADTKE/home
263,Paulo RANGEL,/meps/en/96903/PAULO_RANGEL/home
264,Sofia RIBEIRO,/meps/en/124733/SOFIA_RIBEIRO/home
265,Claude ROLIN,/meps/en/125107/CLAUDE_ROLIN/home
266,Fernando RUAS,/meps/en/124730/FERNANDO_RUAS/home
267,Paul RÜBIG,/meps/en/2278/PAUL_RUBIG/home
268,Kārlis ŠADURSKIS,/meps/en/111033/KARLIS_SADURSKIS/home
269,Tokia SAÏFI,/meps/en/4345/TOKIA_SAIFI/home
270,Anne SANDER,/meps/en/24594/ANNE_SANDER/home
271,Petri SARVAMAA,/meps/en/112611/PETRI_SARVAMAA/home
272,Claudia SCHMIDT,/meps/en/125016/CLAUDIA_SCHMIDT/home
273,Sven SCHULZE,/meps/en/124809/SVEN_SCHULZE/home
274,Andreas SCHWAB,/meps/en/28223/ANDREAS_SCHWAB/home
275,Anders SELLSTRÖM,/meps/en/194658/ANDERS_SELLSTROM/home
276,Czesław Adam SIEKIERSKI,/meps/en/23787/CZESLAW+ADAM_SIEKIERSKI/home
277,Csaba SÓGOR,/meps/en/39724/CSABA_SOGOR/home
278,Michaela ŠOJDROVÁ,/meps/en/124710/MICHAELA_SOJDROVA/home
279,Renate SOMMER,/meps/en/4282/RENATE_SOMMER/home
280,Ivan ŠTEFANEC,/meps/en/124929/IVAN_STEFANEC/home
281,Jaromír ŠTĚTINA,/meps/en/124702/JAROMIR_STETINA/home
282,Theodor Dumitru STOLOJAN,/meps/en/39721/THEODOR+DUMITRU_STOLOJAN/home
283,Dubravka ŠUICA,/meps/en/119434/DUBRAVKA_SUICA/home
284,Patricija ŠULIN,/meps/en/125103/PATRICIJA_SULIN/home
285,Pavel SVOBODA,/meps/en/96272/PAVEL_SVOBODA/home
286,Adam SZEJNFELD,/meps/en/124890/ADAM_SZEJNFELD/home
287,Vladimir URUTCHEV,/meps/en/38601/VLADIMIR_URUTCHEV/home
288,Inese VAIDERE,/meps/en/28617/INESE_VAIDERE/home
289,Adina-Ioana VĂLEAN,/meps/en/37324/ADINA-IOANA_VALEAN/home
290,Tom VANDENKENDELAERE,/meps/en/129164/TOM_VANDENKENDELAERE/home
291,Sabine VERHEYEN,/meps/en/96756/SABINE_VERHEYEN/home
292,Henna VIRKKUNEN,/meps/en/124726/HENNA_VIRKKUNEN/home
293,Axel VOSS,/meps/en/96761/AXEL_VOSS/home
294,Rainer WIELAND,/meps/en/2323/RAINER_WIELAND/home
295,Hermann WINKLER,/meps/en/96764/HERMANN_WINKLER/home
296,Iuliu WINKLER,/meps/en/39725/IULIU_WINKLER/home
297,Francis ZAMMIT DIMECH,/meps/en/188906/FRANCIS_ZAMMIT+DIMECH/home
298,Tomáš ZDECHOVSKÝ,/meps/en/124713/TOMAS_ZDECHOVSKY/home
299,Bogdan Andrzej ZDROJEWSKI,/meps/en/124893/BOGDAN+ANDRZEJ_ZDROJEWSKI/home
300,Joachim ZELLER,/meps/en/96762/JOACHIM_ZELLER/home
301,Željana ZOVKO,/meps/en/185341/ZELJANA_ZOVKO/home
302,Milan ZVER,/meps/en/96933/MILAN_ZVER/home
303,Tadeusz ZWIEFKA,/meps/en/28301/TADEUSZ_ZWIEFKA/home
304,Clara AGUILERA,/meps/en/125045/CLARA_AGUILERA/home
305,Lucy ANDERSON,/meps/en/124949/LUCY_ANDERSON/home
306,Eric ANDRIEU,/meps/en/113892/ERIC_ANDRIEU/home
307,Maria ARENA,/meps/en/124936/MARIA_ARENA/home
308,Francisco ASSIS,/meps/en/28307/FRANCISCO_ASSIS/home
309,Inés AYALA SENDER,/meps/en/28292/INES_AYALA+SENDER/home
310,Guillaume BALAS,/meps/en/124744/GUILLAUME_BALAS/home
311,Zigmantas BALČYTIS,/meps/en/96680/ZIGMANTAS_BALCYTIS/home
312,Hugues BAYET,/meps/en/125002/HUGUES_BAYET/home
313,Pervenche BERÈS,/meps/en/1985/PERVENCHE_BERES/home
314,José BLANCO LÓPEZ,/meps/en/125044/JOSE_BLANCO+LOPEZ/home
315,Vilija BLINKEVIČIŪTĖ,/meps/en/96681/VILIJA_BLINKEVICIUTE/home
316,Paul BRANNEN,/meps/en/124954/PAUL_BRANNEN/home
317,Mercedes BRESSO,/meps/en/28346/MERCEDES_BRESSO/home
318,Renata BRIANO,/meps/en/124787/RENATA_BRIANO/home
319,Udo BULLMANN,/meps/en/4267/UDO_BULLMANN/home
320,Nicola CAPUTO,/meps/en/124851/NICOLA_CAPUTO/home
321,Caterina CHINNICI,/meps/en/124861/CATERINA_CHINNICI/home
322,Ole CHRISTENSEN,/meps/en/28154/OLE_CHRISTENSEN/home
323,Sergio Gaetano COFFERATI,/meps/en/96915/SERGIO+GAETANO_COFFERATI/home
324,Richard CORBETT,/meps/en/2309/RICHARD_CORBETT/home
325,Silvia COSTA,/meps/en/96917/SILVIA_COSTA/home
326,Andi CRISTEA,/meps/en/40224/ANDI_CRISTEA/home
327,Miriam DALLI,/meps/en/124970/MIRIAM_DALLI/home
328,Seb DANCE,/meps/en/124952/SEB_DANCE/home
329,Nicola DANTI,/meps/en/124821/NICOLA_DANTI/home
330,Paolo DE CASTRO,/meps/en/96891/PAOLO_DE+CASTRO/home
331,Isabella DE MONTE,/meps/en/124803/ISABELLA_DE+MONTE/home
332,Michael DETJEN,/meps/en/190799/MICHAEL_DETJEN/home
333,Ismail ERTUG,/meps/en/96842/ISMAIL_ERTUG/home
334,Tanja FAJON,/meps/en/96911/TANJA_FAJON/home
335,Jonás FERNÁNDEZ,/meps/en/125046/JONAS_FERNANDEZ/home
336,Eugen FREUND,/meps/en/125018/EUGEN_FREUND/home
337,Aleksander GABELIC,/meps/en/192465/ALEKSANDER_GABELIC/home
338,Iratxe GARCÍA PÉREZ,/meps/en/28298/IRATXE_GARCIA+PEREZ/home
339,Eider GARDIAZABAL RUBIAL,/meps/en/96991/EIDER_GARDIAZABAL+RUBIAL/home
340,Enrico GASBARRA,/meps/en/124817/ENRICO_GASBARRA/home
341,Evelyne GEBHARDT,/meps/en/1913/EVELYNE_GEBHARDT/home
342,Jens GEIER,/meps/en/96833/JENS_GEIER/home
343,Lidia Joanna GERINGER de OEDENBERG,/meps/en/28377/LIDIA+JOANNA_GERINGER+DE+OEDENBERG/home
344,Adam GIEREK,/meps/en/28379/ADAM_GIEREK/home
345,Ana GOMES,/meps/en/28306/ANA_GOMES/home
346,Maria GRAPINI,/meps/en/124785/MARIA_GRAPINI/home
347,Theresa GRIFFIN,/meps/en/124961/THERESA_GRIFFIN/home
348,Roberto GUALTIERI,/meps/en/96892/ROBERTO_GUALTIERI/home
349,Enrique GUERRERO SALOM,/meps/en/96768/ENRIQUE_GUERRERO+SALOM/home
350,Sylvie GUILLAUME,/meps/en/96952/SYLVIE_GUILLAUME/home
351,Hannes HANSO,/meps/en/197131/HANNES_HANSO/home
352,Anna HEDH,/meps/en/28131/ANNA_HEDH/home
353,Iris HOFFMANN,/meps/en/124841/IRIS_HOFFMANN/home
354,John HOWARTH,/meps/en/188636/JOHN_HOWARTH/home
355,Liisa JAAKONSAARI,/meps/en/96684/LIISA_JAAKONSAARI/home
356,Ramón JÁUREGUI ATONDO,/meps/en/97078/RAMON_JAUREGUI+ATONDO/home
357,Agnes JONGERIUS,/meps/en/125021/AGNES_JONGERIUS/home
358,Karin KADENBACH,/meps/en/97014/KARIN_KADENBACH/home
359,Petra KAMMEREVERT,/meps/en/96837/PETRA_KAMMEREVERT/home
360,Sylvia-Yvonne KAUFMANN,/meps/en/1849/SYLVIA-YVONNE_KAUFMANN/home
361,Afzal KHAN,/meps/en/124962/AFZAL_KHAN/home
362,Jeppe KOFOD,/meps/en/124870/JEPPE_KOFOD/home
363,Arndt KOHN,/meps/en/186884/ARNDT_KOHN/home
364,Cécile Kashetu KYENGE,/meps/en/124801/CECILE+KASHETU_KYENGE/home
365,Jo LEINEN,/meps/en/4262/JO_LEINEN/home
366,Bogusław LIBERADZKI,/meps/en/23768/BOGUSLAW_LIBERADZKI/home
367,Arne LIETZ,/meps/en/124839/ARNE_LIETZ/home
368,Juan Fernando LÓPEZ AGUILAR,/meps/en/96812/JUAN+FERNANDO_LOPEZ+AGUILAR/home
369,Olle LUDVIGSSON,/meps/en/96673/OLLE_LUDVIGSSON/home
370,Krystyna ŁYBACKA,/meps/en/124883/KRYSTYNA_LYBACKA/home
371,Linda McAVAN,/meps/en/2327/LINDA_MCAVAN/home
372,Andrejs MAMIKINS,/meps/en/124746/ANDREJS_MAMIKINS/home
373,Vladimír MAŇKA,/meps/en/28192/VLADIMIR_MANKA/home
374,Louis-Joseph MANSCOUR,/meps/en/124725/LOUIS-JOSEPH_MANSCOUR/home
375,David MARTIN,/meps/en/1403/DAVID_MARTIN/home
376,Edouard MARTIN,/meps/en/124947/EDOUARD_MARTIN/home
377,Alex MAYER,/meps/en/185637/ALEX_MAYER/home
378,Susanne MELIOR,/meps/en/124838/SUSANNE_MELIOR/home
379,Marlene MIZZI,/meps/en/118858/MARLENE_MIZZI/home
380,Clare MOODY,/meps/en/124944/CLARE_MOODY/home
381,Claude MORAES,/meps/en/4519/CLAUDE_MORAES/home
382,Luigi MORGANO,/meps/en/124788/LUIGI_MORGANO/home
383,Norbert NEUSER,/meps/en/96844/NORBERT_NEUSER/home
384,Dan NICA,/meps/en/124784/DAN_NICA/home
385,Maria NOICHL,/meps/en/124836/MARIA_NOICHL/home
386,Rory PALMER,/meps/en/190099/RORY_PALMER/home
387,Pier Antonio PANZERI,/meps/en/28365/PIER+ANTONIO_PANZERI/home
388,Gilles PARGNEAUX,/meps/en/96948/GILLES_PARGNEAUX/home
389,Emilian PAVEL,/meps/en/129256/EMILIAN_PAVEL/home
390,Vincent PEILLON,/meps/en/28166/VINCENT_PEILLON/home
391,Tonino PICULA,/meps/en/112744/TONINO_PICULA/home
392,Kati PIRI,/meps/en/37229/KATI_PIRI/home
393,Pavel POC,/meps/en/96715/PAVEL_POC/home
394,Soraya POST,/meps/en/124997/SORAYA_POST/home
395,Evelyn REGNER,/meps/en/96998/EVELYN_REGNER/home
396,Liliana RODRIGUES,/meps/en/125099/LILIANA_RODRIGUES/home
397,Ulrike RODUST,/meps/en/93624/ULRIKE_RODUST/home
398,Virginie ROZIÈRE,/meps/en/103845/VIRGINIE_ROZIERE/home
399,Alfred SANT,/meps/en/124781/ALFRED_SANT/home
400,Manuel dos SANTOS,/meps/en/21918/MANUEL_DOS+SANTOS/home
401,Daciana Octavia SÂRBU,/meps/en/33989/DACIANA+OCTAVIA_SARBU/home
402,Christel SCHALDEMOSE,/meps/en/37312/CHRISTEL_SCHALDEMOSE/home
403,Elly SCHLEIN,/meps/en/124804/ELLY_SCHLEIN/home
404,Joachim SCHUSTER,/meps/en/124837/JOACHIM_SCHUSTER/home
405,Ricardo SERRÃO SANTOS,/meps/en/124741/RICARDO_SERRAO+SANTOS/home
406,Pedro SILVA PEREIRA,/meps/en/124747/PEDRO_SILVA+PEREIRA/home
407,Peter SIMON,/meps/en/96836/PETER_SIMON/home
408,Siôn SIMON,/meps/en/124948/SION_SIMON/home
409,Birgit SIPPEL,/meps/en/96932/BIRGIT_SIPPEL/home
410,Sergei STANISHEV,/meps/en/124852/SERGEI_STANISHEV/home
411,Tibor SZANYI,/meps/en/124703/TIBOR_SZANYI/home
412,Claudiu Ciprian TĂNĂSESCU,/meps/en/96847/CLAUDIU+CIPRIAN_TANASESCU/home
413,Paul TANG,/meps/en/125020/PAUL_TANG/home
414,Marc TARABELLA,/meps/en/29579/MARC_TARABELLA/home
415,Isabelle THOMAS,/meps/en/114279/ISABELLE_THOMAS/home
416,Marita ULVSKOG,/meps/en/96672/MARITA_ULVSKOG/home
417,Kathleen VAN BREMPT,/meps/en/5729/KATHLEEN_VAN+BREMPT/home
418,Derek VAUGHAN,/meps/en/96918/DEREK_VAUGHAN/home
419,Daniele VIOTTI,/meps/en/124791/DANIELE_VIOTTI/home
420,Julie WARD,/meps/en/124963/JULIE_WARD/home
421,Martina WERNER,/meps/en/124826/MARTINA_WERNER/home
422,Babette WINTER,/meps/en/195912/BABETTE_WINTER/home
423,Tiemo WÖLKEN,/meps/en/185619/TIEMO_WOLKEN/home
424,Boris ZALA,/meps/en/96656/BORIS_ZALA/home
425,Flavio ZANONATO,/meps/en/124800/FLAVIO_ZANONATO/home
426,Janusz ZEMKE,/meps/en/96784/JANUSZ_ZEMKE/home
427,Maria Gabriela ZOANĂ,/meps/en/191377/MARIA+GABRIELA_ZOANA/home
428,Damiano ZOFFOLI,/meps/en/131051/DAMIANO_ZOFFOLI/home
429,Marco AFFRONTE,/meps/en/124797/MARCO_AFFRONTE/home
430,Max ANDERSSON,/meps/en/124994/MAX_ANDERSSON/home
431,Margrete AUKEN,/meps/en/28161/MARGRETE_AUKEN/home
432,Klaus BUCHNER,/meps/en/124818/KLAUS_BUCHNER/home
433,Reinhard BÜTIKOFER,/meps/en/96739/REINHARD_BUTIKOFER/home
434,Michael CRAMER,/meps/en/28238/MICHAEL_CRAMER/home
435,Jakop DALUNDE,/meps/en/183338/JAKOP+G._DALUNDE/home
436,Karima DELLI,/meps/en/96868/KARIMA_DELLI/home
437,Pascal DURAND,/meps/en/124693/PASCAL_DURAND/home
438,Jill EVANS,/meps/en/4550/JILL_EVANS/home
439,Sven GIEGOLD,/meps/en/96730/SVEN_GIEGOLD/home
440,Rebecca HARMS,/meps/en/28233/REBECCA_HARMS/home
441,Martin HÄUSLING,/meps/en/96752/MARTIN_HAUSLING/home
442,Heidi HAUTALA,/meps/en/2054/HEIDI_HAUTALA/home
443,Maria HEUBUCH,/meps/en/124848/MARIA_HEUBUCH/home
444,Yannick JADOT,/meps/en/96740/YANNICK_JADOT/home
445,Benedek JÁVOR,/meps/en/124721/BENEDEK_JAVOR/home
446,Eva JOLY,/meps/en/96883/EVA_JOLY/home
447,Ska KELLER,/meps/en/96734/SKA_KELLER/home
448,Jean LAMBERT,/meps/en/4531/JEAN_LAMBERT/home
449,Philippe LAMBERTS,/meps/en/96648/PHILIPPE_LAMBERTS/home
450,Barbara LOCHBIHLER,/meps/en/96728/BARBARA_LOCHBIHLER/home
451,Florent MARCELLESI,/meps/en/26146/FLORENT_MARCELLESI/home
452,Tilly METZ,/meps/en/193292/TILLY_METZ/home
453,Ana Maria MIRANDA PAZ,/meps/en/24942/ANA+MARIA_MIRANDA+PAZ/home
454,Miroslavs MITROFANOVS,/meps/en/191695/MIROSLAVS_MITROFANOVS/home
455,Julia REDA,/meps/en/124816/JULIA_REDA/home
456,Michel REIMON,/meps/en/124935/MICHEL_REIMON/home
457,Terry REINTKE,/meps/en/103381/TERRY_REINTKE/home
458,Michèle RIVASI,/meps/en/96743/MICHELE_RIVASI/home
459,Judith SARGENTINI,/meps/en/96815/JUDITH_SARGENTINI/home
460,Molly SCOTT CATO,/meps/en/124942/MOLLY_SCOTT+CATO/home
461,Davor ŠKRLEC,/meps/en/124756/DAVOR_SKRLEC/home
462,Jordi SOLÉ,/meps/en/185974/JORDI_SOLE/home
463,Bart STAES,/meps/en/4751/BART_STAES/home
464,Keith TAYLOR,/meps/en/102931/KEITH_TAYLOR/home
465,Josep-Maria TERRICABRAS,/meps/en/124932/JOSEP-MARIA_TERRICABRAS/home
466,Helga TRÜPEL,/meps/en/28240/HELGA_TRUPEL/home
467,Ernest URTASUN,/meps/en/124972/ERNEST_URTASUN/home
468,André ELISSEN,/meps/en/188445/ANDRE_ELISSEN/home
469,Marcel de GRAAFF,/meps/en/125025/MARCEL_DE+GRAAFF/home
470,Michał MARUSIK,/meps/en/124894/MICHAL_MARUSIK/home
471,Olaf STUGER,/meps/en/125028/OLAF_STUGER/home
472,Auke ZIJLSTRA,/meps/en/103246/AUKE_ZIJLSTRA/home
473,Marina ALBIOL GUZMÁN,/meps/en/125048/MARINA_ALBIOL+GUZMAN/home
474,Javier COUSO PERMUY,/meps/en/125997/JAVIER_COUSO+PERMUY/home
475,João PIMENTA LOPES,/meps/en/136236/JOAO_PIMENTA+LOPES/home
476,Ángela VALLINA,/meps/en/125050/ANGELA_VALLINA/home
477,Dobromir SOŚNIERZ,/meps/en/192298/DOBROMIR_SOSNIERZ/home
478,Udo VOIGT,/meps/en/124832/UDO_VOIGT/home
479,Sotirios ZARIANOPOULOS,/meps/en/125090/SOTIRIOS_ZARIANOPOULOS/home
480,Georgi PIRINSKI,/meps/en/124855/GEORGI_PIRINSKI/home
481,Igor GRÄZIN,/meps/en/193879/IGOR_GRAZIN/home
482,Tim AKER,/meps/en/99650/TIM_AKER/home
483,Aymeric CHAUPRADE,/meps/en/124752/AYMERIC_CHAUPRADE/home
484,David COBURN,/meps/en/124967/DAVID_COBURN/home
485,Jörg MEUTHEN,/meps/en/190518/JORG_MEUTHEN/home
486,Giulia MOI,/meps/en/124859/GIULIA_MOI/home
487,Jiří PAYNE,/meps/en/189507/JIRI_PAYNE/home
488,Julia REID,/meps/en/106202/JULIA_REID/home
489,Gerolf ANNEMANS,/meps/en/124973/GEROLF_ANNEMANS/home
490,Marie-Christine ARNAUTU,/meps/en/124748/MARIE-CHRISTINE_ARNAUTU/home
491,Nicolas BAY,/meps/en/124760/NICOLAS_BAY/home
492,Dominique BILDE,/meps/en/124771/DOMINIQUE_BILDE/home
493,Marie-Christine BOUTONNET,/meps/en/124753/MARIE-CHRISTINE_BOUTONNET/home
494,Steeve BRIOIS,/meps/en/124757/STEEVE_BRIOIS/home
495,Jacques COLOMBIER,/meps/en/191510/JACQUES_COLOMBIER/home
496,France JAMET,/meps/en/189065/FRANCE_JAMET/home
497,Barbara KAPPEL,/meps/en/125024/BARBARA_KAPPEL/home
498,Gilles LEBRETON,/meps/en/124738/GILLES_LEBRETON/home
499,Philippe LOISEAU,/meps/en/125684/PHILIPPE_LOISEAU/home
500,Dominique MARTIN,/meps/en/124751/DOMINIQUE_MARTIN/home
501,Franz OBERMAYR,/meps/en/96981/FRANZ_OBERMAYR/home
502,Marcus PRETZELL,/meps/en/124830/MARCUS_PRETZELL/home
503,Jean-Luc SCHAFFHAUSER,/meps/en/124755/JEAN-LUC_SCHAFFHAUSER/home
504,Mylène TROSZCZYNSKI,/meps/en/124758/MYLENE_TROSZCZYNSKI/home
505,Harald VILIMSKY,/meps/en/125001/HARALD_VILIMSKY/home
506,Nikolaos CHOUNTIS,/meps/en/26851/NIKOLAOS_CHOUNTIS/home
507,Eleonora FORENZA,/meps/en/125193/ELEONORA_FORENZA/home
508,Tania GONZÁLEZ PEÑAS,/meps/en/127330/TANIA_GONZALEZ+PENAS/home
509,Takis HADJIGEORGIOU,/meps/en/96907/TAKIS_HADJIGEORGIOU/home
510,Kateřina KONEČNÁ,/meps/en/23699/KATERINA_KONECNA/home
511,Stelios KOULOGLOU,/meps/en/130833/STELIOS_KOULOGLOU/home
512,Patrick LE HYARIC,/meps/en/96735/PATRICK_LE+HYARIC/home
513,Curzio MALTESE,/meps/en/125192/CURZIO_MALTESE/home
514,Marisa MATIAS,/meps/en/96820/MARISA_MATIAS/home
515,Emmanuel MAUREL,/meps/en/24505/EMMANUEL_MAUREL/home
516,Younous OMARJEE,/meps/en/30482/YOUNOUS_OMARJEE/home
517,Dimitrios PAPADIMOULIS,/meps/en/28586/DIMITRIOS_PAPADIMOULIS/home
518,Lola SÁNCHEZ CALDENTEY,/meps/en/125035/LOLA_SANCHEZ+CALDENTEY/home
519,Martin SCHIRDEWAN,/meps/en/190517/MARTIN_SCHIRDEWAN/home
520,Helmut SCHOLZ,/meps/en/96646/HELMUT_SCHOLZ/home
521,Maria Lidia SENRA RODRÍGUEZ,/meps/en/125049/MARIA+LIDIA_SENRA+RODRIGUEZ/home
522,Estefanía TORRES MARTÍNEZ,/meps/en/131749/ESTEFANIA_TORRES+MARTINEZ/home
523,Miguel URBÁN CRESPO,/meps/en/131507/MIGUEL_URBAN+CRESPO/home
524,Gabriele ZIMMER,/meps/en/28248/GABRIELE_ZIMMER/home
525,Bruno GOLLNISCH,/meps/en/1164/BRUNO_GOLLNISCH/home
526,Sophie MONTEL,/meps/en/124769/SOPHIE_MONTEL/home
527,Momchil NEKOV,/meps/en/125013/MOMCHIL_NEKOV/home
528,Jonathan BULLOCK,/meps/en/188733/JONATHAN_BULLOCK/home
529,Jill SEYMOUR,/meps/en/124950/JILL_SEYMOUR/home
530,Damian DRĂGHICI,/meps/en/124786/DAMIAN_DRAGHICI/home
531,Knut FLECKENSTEIN,/meps/en/96840/KNUT_FLECKENSTEIN/home
532,Yana TOOM,/meps/en/124700/YANA_TOOM/home
533,Geoffrey VAN ORDEN,/meps/en/4513/GEOFFREY_VAN+ORDEN/home
534,Jan ZAHRADIL,/meps/en/23712/JAN_ZAHRADIL/home
535,Frank ENGEL,/meps/en/96876/FRANK_ENGEL/home
536,Othmar KARAS,/meps/en/4246/OTHMAR_KARAS/home
537,Romeo FRANZ,/meps/en/193273/ROMEO_FRANZ/home
538,Indrek TARAND,/meps/en/97136/INDREK_TARAND/home
539,Christelle LETARD-LECHEVALIER,/meps/en/188718/CHRISTELLE_LETARD-LECHEVALIER/home
540,Róża THUN UND HOHENSTEIN,/meps/en/96776/ROZA_THUN+UND+HOHENSTEIN/home
541,Bogusław SONIK,/meps/en/28299/BOGUSLAW_SONIK/home
542,Tamás MESZERICS,/meps/en/124720/TAMAS_MESZERICS/home
543,Petras AUŠTREVIČIUS,/meps/en/124766/PETRAS_AUSTREVICIUS/home
544,Enrique CALVET CHAMBON,/meps/en/129407/ENRIQUE_CALVET+CHAMBON/home
545,Mircea DIACONU,/meps/en/124805/MIRCEA_DIACONU/home
546,Cornelia ERNST,/meps/en/96852/CORNELIA_ERNST/home
547,Jaromír KOHLÍČEK,/meps/en/28331/JAROMIR_KOHLICEK/home
548,Kostadinka KUNEVA,/meps/en/125092/KOSTADINKA_KUNEVA/home
549,Jiří MAŠTÁLKA,/meps/en/23704/JIRI_MASTALKA/home
550,Martina MICHELS,/meps/en/120478/MARTINA_MICHELS/home
551,Reimer BÖGE,/meps/en/1037/REIMER_BOGE/home
552,Lorenzo CESA,/meps/en/28451/LORENZO_CESA/home
553,Christian EHLER,/meps/en/28226/CHRISTIAN_EHLER/home
554,Markus FERBER,/meps/en/1917/MARKUS_FERBER/home
555,Karl-Heinz FLORENZ,/meps/en/1038/KARL-HEINZ_FLORENZ/home
556,Jarosław KALINOWSKI,/meps/en/96771/JAROSLAW_KALINOWSKI/home
557,Werner LANGEN,/meps/en/1928/WERNER_LANGEN/home
558,Mairead McGUINNESS,/meps/en/28115/MAIREAD_MCGUINNESS/home
559,Marian-Jean MARINESCU,/meps/en/33982/MARIAN-JEAN_MARINESCU/home
560,Barbara MATERA,/meps/en/96813/BARBARA_MATERA/home
561,Renaud MUSELIER,/meps/en/124729/RENAUD_MUSELIER/home
562,Luděk NIEDERMAYER,/meps/en/124701/LUDEK_NIEDERMAYER/home
563,Dariusz ROSATI,/meps/en/28394/DARIUSZ_ROSATI/home
564,Massimiliano SALINI,/meps/en/125670/MASSIMILIANO_SALINI/home
565,Romana TOMC,/meps/en/125104/ROMANA_TOMC/home
566,Manfred WEBER,/meps/en/28229/MANFRED_WEBER/home
567,Anna ZÁBORSKÁ,/meps/en/23894/ANNA_ZABORSKA/home
568,Goffredo Maria BETTINI,/meps/en/124819/GOFFREDO+MARIA_BETTINI/home
569,Biljana BORZAN,/meps/en/112748/BILJANA_BORZAN/home
570,Soledad CABEZÓN RUIZ,/meps/en/125041/SOLEDAD_CABEZON+RUIZ/home
571,Giuseppe FERRANDINO,/meps/en/192634/GIUSEPPE_FERRANDINO/home
572,Doru-Claudian FRUNZULICĂ,/meps/en/124790/DORU-CLAUDIAN_FRUNZULICA/home
573,Elena GENTILE,/meps/en/124847/ELENA_GENTILE/home
574,Michela GIUFFRIDA,/meps/en/124864/MICHELA_GIUFFRIDA/home
575,Karine GLOANEC MAURIN,/meps/en/193080/KARINE_GLOANEC+MAURIN/home
576,Mary HONEYBALL,/meps/en/5846/MARY_HONEYBALL/home
577,Jan KELLER,/meps/en/124695/JAN_KELLER/home
578,Constanze KREHL,/meps/en/1854/CONSTANZE_KREHL/home
579,Miltiadis KYRKOS,/meps/en/125113/MILTIADIS_KYRKOS/home
580,Bernd LANGE,/meps/en/1909/BERND_LANGE/home
581,Csaba MOLNÁR,/meps/en/124722/CSABA_MOLNAR/home
582,Alessia Maria MOSCA,/meps/en/124868/ALESSIA+MARIA_MOSCA/home
583,Péter NIEDERMÜLLER,/meps/en/124723/PETER_NIEDERMULLER/home
584,Pina PICIERNO,/meps/en/124846/PINA_PICIERNO/home
585,Miroslav POCHE,/meps/en/124699/MIROSLAV_POCHE/home
586,Răzvan POPA,/meps/en/189490/RAZVAN_POPA/home
587,Gabriele PREUSS,/meps/en/124888/GABRIELE_PREUS/home
588,David Maria SASSOLI,/meps/en/96864/DAVID+MARIA_SASSOLI/home
589,Olga SEHNALOVÁ,/meps/en/96718/OLGA_SEHNALOVA/home
590,Monika SMOLKOVÁ,/meps/en/96655/MONIKA_SMOLKOVA/home
591,Patrizia TOIA,/meps/en/28340/PATRIZIA_TOIA/home
592,Kerstin WESTPHAL,/meps/en/96839/KERSTIN_WESTPHAL/home
593,Norica NICOLAI,/meps/en/96825/NORICA_NICOLAI/home
594,Nikolay BAREKOV,/meps/en/124871/NIKOLAY_BAREKOV/home
595,Amjad BASHIR,/meps/en/124956/AMJAD_BASHIR/home
596,David CAMPBELL BANNERMAN,/meps/en/96912/DAVID_CAMPBELL+BANNERMAN/home
597,Raffaele FITTO,/meps/en/4465/RAFFAELE_FITTO/home
598,Anna FOTYGA,/meps/en/28353/ANNA_FOTYGA/home
599,Innocenzo LEONTINI,/meps/en/72754/INNOCENZO_LEONTINI/home
600,Stefano MAULLU,/meps/en/133326/STEFANO_MAULLU/home
601,Tomasz Piotr PORĘBA,/meps/en/96801/TOMASZ+PIOTR_POREBA/home
602,Valdemar TOMAŠEVSKI,/meps/en/96697/VALDEMAR_TOMASEVSKI/home
603,Roberts ZĪLE,/meps/en/28615/ROBERTS_ZILE/home
604,Tiziana BEGHIN,/meps/en/124777/TIZIANA_BEGHIN/home
605,Bill ETHERIDGE,/meps/en/124951/BILL_ETHERIDGE/home
606,Patrick O'FLYNN,/meps/en/124940/PATRICK_O%27FLYNN/home
607,John Stuart AGNEW,/meps/en/96897/JOHN+STUART_AGNEW/home
608,Gerard BATTEN,/meps/en/28497/GERARD_BATTEN/home
609,Jean-François JALKH,/meps/en/124770/JEAN-FRANCOIS_JALKH/home
610,Joëlle MÉLIN,/meps/en/124765/JOELLE_MELIN/home
611,Lynn BOYLAN,/meps/en/124984/LYNN_BOYLAN/home
612,Liadh NÍ RIADA,/meps/en/124987/LIADH_NI+RIADA/home
613,Miguel VIEGAS,/meps/en/125100/MIGUEL_VIEGAS/home
614,Georgios EPITIDEIOS,/meps/en/125071/GEORGIOS_EPITIDEIOS/home
615,Kostas PAPADAKIS,/meps/en/125093/KOSTAS_PAPADAKIS/home
616,Eleftherios SYNADINOS,/meps/en/125072/ELEFTHERIOS_SYNADINOS/home
617,András GYÜRK,/meps/en/23816/ANDRAS_GYURK/home
618,Ivica TOLIĆ,/meps/en/185340/IVICA_TOLIC/home
619,Bas EICKHOUT,/meps/en/96725/BAS_EICKHOUT/home
620,Alyn SMITH,/meps/en/28508/ALYN_SMITH/home
621,Igor ŠOLTES,/meps/en/125003/IGOR_SOLTES/home
622,Thomas WAITZ,/meps/en/190464/THOMAS_WAITZ/home
623,József SZÁJER,/meps/en/23821/JOZSEF_SZAJER/home
624,Xabier BENITO ZILUAGA,/meps/en/135490/XABIER_BENITO+ZILUAGA/home
625,Thierry CORNILLET,/meps/en/4338/THIERRY_CORNILLET/home
626,Urmas PAET,/meps/en/129073/URMAS_PAET/home
627,Laura FERRARA,/meps/en/124833/LAURA_FERRARA/home
628,Rolandas PAKSAS,/meps/en/96694/ROLANDAS_PAKSAS/home
629,Salvatore CICU,/meps/en/124854/SALVATORE_CICU/home
630,Alberto CIRIO,/meps/en/124772/ALBERTO_CIRIO/home
631,Ramona Nicole MĂNESCU,/meps/en/39717/RAMONA+NICOLE_MANESCU/home
632,Fulvio MARTUSCIELLO,/meps/en/124828/FULVIO_MARTUSCIELLO/home
633,Jarosław WAŁĘSA,/meps/en/96774/JAROSLAW_WALESA/home
634,Brando BENIFEI,/meps/en/124867/BRANDO_BENIFEI/home
635,Simona BONAFÈ,/meps/en/124814/SIMONA_BONAFE/home
636,Peter KOUROUMBASHEV,/meps/en/124857/PETER_KOUROUMBASHEV/home
637,Nigel FARAGE,/meps/en/4525/NIGEL_FARAGE/home
638,Paul NUTTALL,/meps/en/96805/PAUL_NUTTALL/home
639,László TŐKÉS,/meps/en/39726/LASZLO_TOKES/home
640,Catherine BEARDER,/meps/en/96955/CATHERINE_BEARDER/home
641,Maria João RODRIGUES,/meps/en/124737/MARIA+JOAO_RODRIGUES/home
642,Valentinas MAZURONIS,/meps/en/124768/VALENTINAS_MAZURONIS/home
643,Iskra MIHAYLOVA,/meps/en/125128/ISKRA_MIHAYLOVA/home
644,Jens ROHDE,/meps/en/96710/JENS_ROHDE/home
645,Ryszard Antoni LEGUTKO,/meps/en/96796/RYSZARD+ANTONI_LEGUTKO/home
646,James CARVER,/meps/en/124971/JAMES_CARVER/home
647,Robert Jarosław IWASZKIEWICZ,/meps/en/124886/ROBERT+JAROSLAW_IWASZKIEWICZ/home
648,Merja KYLLÖNEN,/meps/en/124736/MERJA_KYLLONEN/home
649,Sabine LÖSING,/meps/en/96854/SABINE_LOSING/home
650,Neoklis SYLIKIOTIS,/meps/en/124689/NEOKLIS_SYLIKIOTIS/home
651,Rikke-Louise KARLSSON,/meps/en/124876/RIKKE-LOUISE_KARLSSON/home
652,Lara COMI,/meps/en/96775/LARA_COMI/home
653,Giovanni LA VIA,/meps/en/96816/GIOVANNI_LA+VIA/home
654,Eva MAYDELL,/meps/en/98341/EVA_MAYDELL/home
655,Cláudia MONTEIRO DE AGUIAR,/meps/en/124734/CLAUDIA_MONTEIRO+DE+AGUIAR/home
656,Aldo PATRICIELLO,/meps/en/36392/ALDO_PATRICIELLO/home
657,Algirdas SAUDARGAS,/meps/en/96696/ALGIRDAS_SAUDARGAS/home
658,Maria SPYRAKI,/meps/en/125064/MARIA_SPYRAKI/home
659,Andrea COZZOLINO,/meps/en/96880/ANDREA_COZZOLINO/home
660,Giorgos GRAMMATIKAKIS,/meps/en/125112/GIORGOS_GRAMMATIKAKIS/home
661,Jytte GUTELAND,/meps/en/124991/JYTTE_GUTELAND/home
662,Massimo PAOLUCCI,/meps/en/124849/MASSIMO_PAOLUCCI/home
663,István UJHELYI,/meps/en/124705/ISTVAN_UJHELYI/home
664,Ian HUDGHTON,/meps/en/2338/IAN_HUDGHTON/home
665,Jane COLLINS,/meps/en/124955/JANE_COLLINS/home
666,Mike HOOKEM,/meps/en/124957/MIKE_HOOKEM/home
667,Nessa CHILDERS,/meps/en/96603/NESSA_CHILDERS/home
668,Richard SULÍK,/meps/en/124928/RICHARD_SULIK/home
669,Angelo CIOCCA,/meps/en/183793/ANGELO_CIOCCA/home
670,Kay SWINBURNE,/meps/en/96920/KAY_SWINBURNE/home
671,Traian UNGUREANU,/meps/en/96835/TRAIAN_UNGUREANU/home
672,Lefteris CHRISTOFOROU,/meps/en/26837/LEFTERIS_CHRISTOFOROU/home
673,Isabella ADINOLFI,/meps/en/124831/ISABELLA_ADINOLFI/home
674,Ivari PADAR,/meps/en/97025/IVARI_PADAR/home
675,Linnéa ENGSTRÖM,/meps/en/128588/LINNEA_ENGSTROM/home
676,Nikos ANDROULAKIS,/meps/en/125110/NIKOS_ANDROULAKIS/home
677,Sofia SAKORAFA,/meps/en/125091/SOFIA_SAKORAFA/home
678,Eva KAILI,/meps/en/125109/EVA_KAILI/home
679,Demetris PAPADAKIS,/meps/en/124692/DEMETRIS_PAPADAKIS/home
680,Raymond FINCH,/meps/en/124941/RAYMOND_FINCH/home
681,Janice ATKINSON,/meps/en/124938/JANICE_ATKINSON/home
682,Eleni THEOCHAROUS,/meps/en/25704/ELENI_THEOCHAROUS/home
683,Sergio GUTIÉRREZ PRIETO,/meps/en/103488/SERGIO_GUTIERREZ+PRIETO/home
684,Costas MAVRIDES,/meps/en/124691/COSTAS_MAVRIDES/home
685,Manolis KEFALOGIANNIS,/meps/en/125068/MANOLIS_KEFALOGIANNIS/home
686,Louise BOURS,/meps/en/124964/LOUISE_BOURS/home
687,György SCHÖPFLIN,/meps/en/28135/GYORGY_SCHOPFLIN/home
688,Theodoros ZAGORAKIS,/meps/en/125067/THEODOROS_ZAGORAKIS/home
689,Margot PARKER,/meps/en/124945/MARGOT_PARKER/home
690,Georgios KYRTSOS,/meps/en/125063/GEORGIOS_KYRTSOS/home
691,Cătălin Sorin IVAN,/meps/en/96857/CATALIN+SORIN_IVAN/home
692,Catherine STIHLER,/meps/en/4545/CATHERINE_STIHLER/home
693,Maurice PONGA,/meps/en/96931/MAURICE_PONGA/home
694,Krišjānis KARIŅŠ,/meps/en/96901/KRISJANIS_KARINS/home
695,Bogdan Brunon WENTA,/meps/en/124903/BOGDAN+BRUNON_WENTA/home
696,Artis PABRIKS,/meps/en/124743/ARTIS_PABRIKS/home
697,Sander LOONES,/meps/en/128717/SANDER_LOONES/home
698,Lars ADAKTUSSON,/meps/en/124990/LARS_ADAKTUSSON/home
699,Kaja KALLAS,/meps/en/124697/KAJA_KALLAS/home
700,Viviane REDING,/meps/en/1185/VIVIANE_REDING/home
701,Burkhard BALZ,/meps/en/96997/BURKHARD_BALZ/home
702,Jan Philipp ALBRECHT,/meps/en/96736/JAN+PHILIPP_ALBRECHT/home
703,Claude TURMES,/meps/en/4432/CLAUDE_TURMES/home
704,Jean-Paul DENANOT,/meps/en/94282/JEAN-PAUL_DENANOT/home
705,Paavo VÄYRYNEN,/meps/en/2128/PAAVO_VAYRYNEN/home
706,Renato SORU,/meps/en/124860/RENATO_SORU/home
707,Salvatore Domenico POGLIESE,/meps/en/124853/SALVATORE+DOMENICO_POGLIESE/home
708,Lorenzo FONTANA,/meps/en/96993/LORENZO_FONTANA/home
709,Matteo SALVINI,/meps/en/28404/MATTEO_SALVINI/home
710,Tatjana ŽDANOKA,/meps/en/28619/TATJANA_ZDANOKA/home
711,Hannu TAKKULA,/meps/en/28316/HANNU_TAKKULA/home
712,Josu JUARISTI ABAUNZ,/meps/en/125051/JOSU_JUARISTI+ABAUNZ/home
713,Viorica DĂNCILĂ,/meps/en/95281/VIORICA_DANCILA/home
714,Edouard FERRAND,/meps/en/124767/EDOUARD_FERRAND/home
715,Jens NILSSON,/meps/en/111024/JENS_NILSSON/home
716,Gianni PITTELLA,/meps/en/4436/GIANNI_PITTELLA/home
717,Marju LAURISTIN,/meps/en/124698/MARJU_LAURISTIN/home
718,Ulrike LUNACEK,/meps/en/97017/ULRIKE_LUNACEK/home
719,Cora van NIEUWENHUIZEN,/meps/en/125019/CORA_VAN+NIEUWENHUIZEN/home
720,Alexander Graf LAMBSDORFF,/meps/en/28242/ALEXANDER+GRAF_LAMBSDORFF/home
721,Michael THEURER,/meps/en/96871/MICHAEL_THEURER/home
722,Dame Glenis WILLMOTT,/meps/en/35743/Dame_GLENIS_WILLMOTT/home
723,Beatrix von STORCH,/meps/en/124825/BEATRIX_VON+STORCH/home
724,Roger HELMER,/meps/en/4516/ROGER_HELMER/home
725,Petr MACH,/meps/en/84175/PETR_MACH/home
726,Fabio DE MASI,/meps/en/124858/FABIO_DE+MASI/home
727,Mariya GABRIEL,/meps/en/96848/MARIYA_GABRIEL/home
728,Herbert REUL,/meps/en/28225/HERBERT_REUL/home
729,Ian DUNCAN,/meps/en/124960/IAN_DUNCAN/home
730,Victor NEGRESCU,/meps/en/88882/VICTOR_NEGRESCU/home
731,Louis ALIOT,/meps/en/30190/LOUIS_ALIOT/home
732,Marine LE PEN,/meps/en/28210/MARINE_LE+PEN/home
733,Vicky FORD,/meps/en/96949/VICKY_FORD/home
734,Marielle de SARNEZ,/meps/en/4335/MARIELLE_DE+SARNEZ/home
735,Andrew LEWER,/meps/en/124943/ANDREW_LEWER/home
736,Therese COMODINI CACHIA,/meps/en/124968/THERESE_COMODINI+CACHIA/home
737,Anneliese DODDS,/meps/en/124969/ANNELIESE_DODDS/home
738,Sylvie GOULARD,/meps/en/97137/SYLVIE_GOULARD/home
739,Jean-Luc MÉLENCHON,/meps/en/96742/JEAN-LUC_MELENCHON/home
740,Vicky MAEIJER,/meps/en/97513/VICKY_MAEIJER/home
741,Ernest MARAGALL,/meps/en/124933/ERNEST_MARAGALL/home
742,Iliana IOTOVA,/meps/en/38605/ILIANA_IOTOVA/home
743,Antonio TAJANI,/meps/en/2187/ANTONIO_TAJANI/home
744,Pablo ZALBA BIDEGAIN,/meps/en/96763/PABLO_ZALBA+BIDEGAIN/home
745,Matthias GROOTE,/meps/en/34728/MATTHIAS_GROOTE/home
746,Richard HOWITT,/meps/en/2073/RICHARD_HOWITT/home
747,Jordi Vicent SEBASTIA TALAVERA,/meps/en/125053/JORDI+VICENT_SEBASTIA+TALAVERA/home
748,Martin SCHULZ,/meps/en/1911/MARTIN_SCHULZ/home
749,Andrej PLENKOVIĆ,/meps/en/112755/ANDREJ_PLENKOVIC/home
750,Davor Ivo STIER,/meps/en/119435/DAVOR+IVO_STIER/home
751,Timothy KIRKHOPE,/meps/en/4542/TIMOTHY_KIRKHOPE/home
752,Elisa FERREIRA,/meps/en/28308/ELISA_FERREIRA/home
753,Gianluca BUONANNO,/meps/en/124869/GIANLUCA_BUONANNO/home
754,Gabrielius LANDSBERGIS,/meps/en/124759/GABRIELIUS_LANDSBERGIS/home
755,Peter ERIKSSON,/meps/en/124937/PETER_ERIKSSON/home
756,Philippe DE BACKER,/meps/en/109337/PHILIPPE_DE+BACKER/home
757,Janusz WOJCIECHOWSKI,/meps/en/23784/JANUSZ_WOJCIECHOWSKI/home
758,Ulla TØRNÆS,/meps/en/124880/ULLA_TORNAES/home
759,Miloslav RANSDORF,/meps/en/23706/MILOSLAV_RANSDORF/home
760,Inês Cristina ZUBER,/meps/en/111589/INES+CRISTINA_ZUBER/home
761,Juan Carlos GIRAUTA VIDAL,/meps/en/125052/JUAN+CARLOS_GIRAUTA+VIDAL/home
762,Fernando MAURA BARANDIARÁN,/meps/en/125039/FERNANDO_MAURA+BARANDIARAN/home
763,Dawid Bohdan JACKIEWICZ,/meps/en/124882/DAWID+BOHDAN_JACKIEWICZ/home
764,Marek Józef GRÓBARCZYK,/meps/en/96790/MAREK+JOZEF_GROBARCZYK/home
765,Pablo IGLESIAS,/meps/en/125031/PABLO_IGLESIAS/home
766,Marit PAULSEN,/meps/en/4270/MARIT_PAULSEN/home
767,Emmanouil GLEZOS,/meps/en/1654/EMMANOUIL_GLEZOS/home
768,Jörg LEICHTFRIED,/meps/en/28251/JORG_LEICHTFRIED/home
769,Hans JANSEN,/meps/en/125029/HANS_JANSEN/home
770,Andrzej DUDA,/meps/en/124899/ANDRZEJ_DUDA/home
771,Giovanni TOTI,/meps/en/124764/GIOVANNI_TOTI/home
772,Sampo TERHO,/meps/en/107385/SAMPO_TERHO/home
773,Pablo ECHENIQUE,/meps/en/125036/PABLO_ECHENIQUE/home
774,Eduard-Raul HELLVIG,/meps/en/37448/EDUARD-RAUL_HELLVIG/home
775,Georgios KATROUGKALOS,/meps/en/125062/GEORGIOS_KATROUGKALOS/home
776,Olli REHN,/meps/en/2119/OLLI_REHN/home
777,Alessandra MORETTI,/meps/en/124799/ALESSANDRA_MORETTI/home
778,Louis IDE,/meps/en/125108/LOUIS_IDE/home
779,Miguel ARIAS CAÑETE,/meps/en/1351/MIGUEL_ARIAS+CANETE/home
780,Tomislav DONCHEV,/meps/en/124843/TOMISLAV_DONCHEV/home
781,Andrus ANSIP,/meps/en/124696/ANDRUS_ANSIP/home
782,Valdis DOMBROVSKIS,/meps/en/28618/VALDIS_DOMBROVSKIS/home
783,Christos STYLIANIDES,/meps/en/124688/CHRISTOS_STYLIANIDES/home
784,Corina CREȚU,/meps/en/33997/CORINA_CRETU/home
785,Francisco SOSA WAGNER,/meps/en/97170/FRANCISCO_SOSA+WAGNER/home
786,Isabella LÖVIN,/meps/en/96675/ISABELLA_LOVIN/home
787,Marianne THYSSEN,/meps/en/1832/MARIANNE_THYSSEN/home
788,Johan VAN OVERTVELDT,/meps/en/125106/JOHAN_VAN+OVERTVELDT/home
789,Carlos JIMÉNEZ VILLAREJO,/meps/en/125034/CARLOS_JIMENEZ+VILLAREJO/home
790,Philip BRADBOURN,/meps/en/4540/PHILIP_BRADBOURN/home
791,Sophia in 't VELD,/meps/en/28266/SOPHIA_IN+%27T+VELD/home
792,Pirkko RUOHONEN-LERNER,/meps/en/132366/PIRKKO_RUOHONEN-LERNER/home
793,Jacek SARYUSZ-WOLSKI,/meps/en/28297/JACEK_SARYUSZ-WOLSKI/home
794,Giancarlo SCOTTÀ,/meps/en/96996/GIANCARLO_SCOTTA/home
795,Agnieszka KOZŁOWSKA-RAJEWICZ,/meps/en/124889/AGNIESZKA_KOZLOWSKA-RAJEWICZ/home
796,Antonio LÓPEZ-ISTÚRIZ WHITE,/meps/en/28399/ANTONIO_LOPEZ-ISTURIZ+WHITE/home
797,Elisabeth MORIN-CHARTIER,/meps/en/38596/ELISABETH_MORIN-CHARTIER/home
798,Siegfried MUREŞAN,/meps/en/124802/SIEGFRIED_MURESAN/home
799,José Ignacio SALAFRANCA SÁNCHEZ-NEYRA,/meps/en/2002/JOSE+IGNACIO_SALAFRANCA+SANCHEZ-NEYRA/home
800,Annie SCHREIJER-PIERIK,/meps/en/125030/ANNIE_SCHREIJER-PIERIK/home
801,Mihai ŢURCANU,/meps/en/131750/MIHAI_TURCANU/home
802,Karoline GRASWANDER-HAINZ,/meps/en/133316/KAROLINE_GRASWANDER-HAINZ/home
803,Jude KIRTON-DARLING,/meps/en/124953/JUDE_KIRTON-DARLING/home
804,Miapetra KUMPULA-NATRI,/meps/en/124735/MIAPETRA_KUMPULA-NATRI/home
805,Christine REVAULT D'ALLONNES BONNEFOY,/meps/en/124287/CHRISTINE_REVAULT+D%27ALLONNES+BONNEFOY/home
806,Inma RODRÍGUEZ-PIÑERO,/meps/en/125043/INMA_RODRIGUEZ-PINERO/home
807,Claudia ȚAPARDEL,/meps/en/124793/CLAUDIA_TAPARDEL/home
808,Bronis ROPĖ,/meps/en/125214/BRONIS_ROPE/home
809,Victor BOŞTINARU,/meps/en/39711/VICTOR_BOSTINARU/home
810,Ioan Mircea PAŞCU,/meps/en/33984/IOAN+MIRCEA_PASCU/home
811,Godelieve QUISTHOUDT-ROWOHL,/meps/en/1055/GODELIEVE_QUISTHOUDT-ROWOHL/home
812,Cristian-Silviu BUŞOI,/meps/en/38420/CRISTIAN-SILVIU_BUSOI/home
813,Birgit COLLIN-LANGEN,/meps/en/112788/BIRGIT_COLLIN-LANGEN/home
814,Jussi HALLA-AHO,/meps/en/124727/JUSSI_HALLA-AHO/home
815,Teresa JIMÉNEZ-BECERRIL BARRIO,/meps/en/96806/TERESA_JIMENEZ-BECERRIL+BARRIO/home
816,Janusz KORWIN-MIKKE,/meps/en/124879/JANUSZ_KORWIN-MIKKE/home
817,Ildikó GÁLL-PELCZ,/meps/en/102886/ILDIKO_GALL-PELCZ/home
818,Annemie NEYTS-UYTTEBROECK,/meps/en/1946/ANNEMIE_NEYTS-UYTTEBROECK/home
819,Nathan GILL,/meps/en/124965/NATHAN_GILL/home
820,Sylvie GODDYN,/meps/en/21331/SYLVIE_GODDYN/home
821,Zoltán BALCZÓ,/meps/en/96877/ZOLTAN_BALCZO/home
822,Arnaud DANJEAN,/meps/en/96747/ARNAUD_DANJEAN/home
823,Barbara KUDRYCKA,/meps/en/28284/BARBARA_KUDRYCKA/home
824,David McALLISTER,/meps/en/124806/DAVID_MCALLISTER/home
825,Mady DELVAUX,/meps/en/124776/MADY_DELVAUX/home
826,Dietmar KÖSTER,/meps/en/124822/DIETMAR_KOSTER/home
827,Javi LÓPEZ,/meps/en/125042/JAVI_LOPEZ/home
828,Elena VALENCIANO,/meps/en/4334/ELENA_VALENCIANO/home
829,Josef WEIDENHOLZER,/meps/en/111014/JOSEF_WEIDENHOLZER/home
830,Carlos ZORRINHO,/meps/en/124739/CARLOS_ZORRINHO/home
831,José BOVÉ,/meps/en/96744/JOSE_BOVE/home
832,Monika VANA,/meps/en/124934/MONIKA_VANA/home
833,Stanisław ŻÓŁTEK,/meps/en/124902/STANISLAW_ZOLTEK/home
834,João FERREIRA,/meps/en/96706/JOAO_FERREIRA/home
835,Jean-Marie LE PEN,/meps/en/1023/JEAN-MARIE_LE+PEN/home
836,Alessandra MUSSOLINI,/meps/en/28429/ALESSANDRA_MUSSOLINI/home
837,Ramón Luis VALCÁRCEL SISO,/meps/en/125032/RAMON+LUIS_VALCARCEL+SISO/home
838,Monika BEŇOVÁ,/meps/en/23868/MONIKA_BENOVA/home
839,Georg MAYER,/meps/en/38511/GEORG_MAYER/home
840,Steven WOOLFE,/meps/en/124966/STEVEN_WOOLFE/home
841,Diane DODDS,/meps/en/96951/DIANE_DODDS/home
842,Jutta STEINRUCK,/meps/en/96831/JUTTA_STEINRUCK/home
843,Elisabeth KÖSTINGER,/meps/en/96882/ELISABETH_KOSTINGER/home
844,Iveta GRIGULE-PĒTERSE,/meps/en/124745/IVETA_GRIGULE-PETERSE/home
845,Constance LE GRIP,/meps/en/101580/CONSTANCE_LE+GRIP/home
846,Elissavet VOZEMBERG-VRIONIDI,/meps/en/125065/ELISSAVET_VOZEMBERG-VRIONIDI/home
847,Jakob von WEIZSÄCKER,/meps/en/124840/JAKOB_VON+WEIZSACKER/home
848,Teresa RODRIGUEZ-RUBIO,/meps/en/125033/TERESA_RODRIGUEZ-RUBIO/home
849,Luis de GRANDES PASCUAL,/meps/en/28393/LUIS_DE+GRANDES+PASCUAL/home
850,Esther de LANGE,/meps/en/38398/ESTHER_DE+LANGE/home
851,Bodil VALERO,/meps/en/124993/BODIL_VALERO/home
852,Paloma LÓPEZ BERMEJO,/meps/en/125047/PALOMA_LOPEZ+BERMEJO/home
853,Neena GILL,/meps/en/4533/NEENA_GILL/home
